{
	"name": "Player",
	"plugin-id": "Sprite",
	"sid": 641651976255931,
	"isGlobal": false,
	"instanceVariables": [
		{
			"name": "speed",
			"type": "number",
			"desc": "",
			"sid": 543240836443392
		},
		{
			"name": "leftKey",
			"type": "string",
			"desc": "",
			"sid": 676802107948648
		},
		{
			"name": "rightKey",
			"type": "string",
			"desc": "",
			"sid": 628057438746563
		},
		{
			"name": "upKey",
			"type": "string",
			"desc": "",
			"sid": 847437953316361
		},
		{
			"name": "downKey",
			"type": "string",
			"desc": "",
			"sid": 718712522837028
		}
	],
	"behaviorTypes": [
		{
			"behaviorId": "TileMovement",
			"name": "TileMovement",
			"sid": 220289935691199
		},
		{
			"behaviorId": "scrollto",
			"name": "ScrollTo",
			"sid": 641858995654258
		},
		{
			"behaviorId": "Pathfinding",
			"name": "Pathfinding",
			"sid": 141535072316180
		},
		{
			"behaviorId": "solid",
			"name": "Solid",
			"sid": 896281698711512
		},
		{
			"behaviorId": "LOS",
			"name": "LineOfSight",
			"sid": 652885112464124
		},
		{
			"behaviorId": "Physics",
			"name": "Physics",
			"sid": 851231460662898
		}
	],
	"effectTypes": [],
	"animations": {
		"items": [
			{
				"frames": [
					{
						"width": 32,
						"height": 32,
						"originX": 0,
						"originY": 0,
						"originalSource": "",
						"exportFormat": "png",
						"exportQuality": 0.8,
						"imageSpriteId": 9852218,
						"collisionPoly": {
							"points": [
								0.04296875,
								0.03515625,
								0.9609375,
								0.025390625,
								0.9453125,
								0.96484375,
								0.048828125,
								0.970703125
							]
						},
						"useCollisionPoly": true,
						"duration": 1
					}
				],
				"sid": 665640935391727,
				"name": "Animation 1",
				"isLooping": false,
				"isPingPong": false,
				"repeatCount": 1,
				"repeatTo": 0,
				"speed": 5
			}
		],
		"subfolders": []
	}
}